<svg xmlns="http://www.w3.org/2000/svg" width="40" height="37" viewBox="0 0 40 37">
    <path fill="#B0BECE" d="M25 0c1.657 0 3 1.343 3 3v7h9c1.657 0 3 1.343 3 3v16c0 1.657-1.343 3-3 3h-9.764l-7.789 3.894C18.782 36.227 18 35.744 18 35v-3h-3c-1.657 0-3-1.343-3-3v-7H3c-1.657 0-3-1.343-3-3V3c0-1.657 1.343-3 3-3h22zm12 12H15c-.552 0-1 .448-1 1v16c0 .552.448 1 1 1h4c.552 0 1 .448 1 1v2.382l6.553-3.276c.139-.07.292-.106.447-.106h10c.552 0 1-.448 1-1V13c0-.552-.448-1-1-1zm-4 12c.552 0 1 .448 1 1 0 .513-.386.936-.883.993L33 26H19c-.552 0-1-.448-1-1 0-.513.386-.936.883-.993L19 24h14zm0-4c.552 0 1 .448 1 1 0 .513-.386.936-.883.993L33 22H19c-.552 0-1-.448-1-1 0-.513.386-.936.883-.993L19 20h14zm-7-10V3c0-.552-.448-1-1-1H3c-.552 0-1 .448-1 1v16c0 .552.448 1 1 1h9v-4H7c-.552 0-1-.448-1-1 0-.513.386-.936.883-.993L7 14h5v-1c0-.35.06-.687.17-1H7c-.552 0-1-.448-1-1 0-.513.386-.936.883-.993L7 10h19zm.95 6c.552 0 1 .448 1 1 0 .513-.387.936-.884.993l-.117.007H19c-.552 0-1-.448-1-1 0-.513.386-.936.883-.993L19 16h7.95zm-12-10c.552 0 1 .448 1 1 0 .513-.387.936-.884.993L14.949 8H7c-.552 0-1-.448-1-1 0-.513.386-.936.883-.993L7 6h7.95z"/>
</svg>
